refmod-sub-uvm/sim/report-sim.log
Reading pref.tcl

# 2020.4

# vsim -c -sv_seed random -do "sim.do" -do "cov.do" "+n1000" mul_tb 
# Start time: 16:17:11 on Mar 23,2024
# ** Note: (vsim-3812) Design is being optimized...
# ** Warning: ../src/daddatree.sv(4): (vopt-13314) Defaulting port 'ops' kind to 'var' rather than 'wire' due to default compile option setting of -svinputport=relaxed.
# ** Note: (vsim-12126) Error and warning message counts have been restored: Errors=0, Warnings=1.
# //  Questa Sim-64
# //  Version 2020.4 linux_x86_64 Oct 13 2020
# //
# //  Copyright 1991-2020 Mentor Graphics Corporation
# //  All Rights Reserved.
# //
# //  QuestaSim and its associated documentation contain trade
# //  secrets and commercial or financial information that are the property of
# //  Mentor Graphics Corporation and are privileged, confidential,
# //  and exempt from disclosure under the Freedom of Information Act,
# //  5 U.S.C. Section 552. Furthermore, this information
# //  is prohibited from disclosure under the Trade Secrets Act,
# //  18 U.S.C. Section 1905.
# //
# Loading sv_std.std
# Loading work.mul_tb_sv_unit(fast)
# Loading work.mul_tb(fast)
# Loading work.mul_wrap(fast)
# Loading work.mul_if(fast)
# Sv_Seed = 4225658540
# do sim.do

########## SIMULATION STARTS ##########

# [CONFIG] Number of test cycles set to 1000
# 
# TEST #1 - Launching MUL quiet test...
# TEST #1 - Test completed!
# TEST #1 - Functional coverage: 100.00%
# 
# TEST #2 - Launching MUL verbose test...
# [10025000]  | a: 11110111111 (1983) | b: 10111100111 (1511) | res: 1011011011100001011001 (2996313)
# [10035000]  | a: 00100101000 ( 296) | b: 11100010101 (1813) | res: 0010000011000001001000 ( 536648)
# [10045000]  | a: 11000001110 (1550) | b: 01100000111 ( 775) | res: 0100100101010001100010 (1201250)
# [10055000]  | a: 11000010111 (1559) | b: 11000100110 (1574) | res: 1001010111000101101010 (2453866)
# [10065000]  | a: 10001000001 (1089) | b: 00101011110 ( 350) | res: 0001011101000011011110 ( 381150)
# [10075000]  | a: 00111011010 ( 474) | b: 11110110001 (1969) | res: 0011100011110110111010 ( 933306)
# [10085000]  | a: 11101111110 (1918) | b: 11011111110 (1790) | res: 1101000110001100000100 (3433220)
# [10095000]  | a: 00001111010 ( 122) | b: 11011100000 (1760) | res: 0000110100011011000000 ( 214720)
# [10105000]  | a: 10011101000 (1256) | b: 01010111100 ( 700) | res: 0011010110101001100000 ( 879200)
# [10115000]  | a: 01011111010 ( 762) | b: 00010110010 ( 178) | res: 0000100001000111010100 ( 135636)
# [10125000]  | a: 10101010010 (1362) | b: 11011110111 (1783) | res: 1001010000111000011110 (2428446)
# [10135000]  | a: 11111000011 (1987) | b: 00011100011 ( 227) | res: 0001101110000111101001 ( 451049)
# [10145000]  | a: 00101110110 ( 374) | b: 01100111100 ( 828) | res: 0001001011100110101000 ( 309672)
# [10155000]  | a: 01000110000 ( 560) | b: 10100110101 (1333) | res: 0010110110001111110000 ( 746480)
# [10165000]  | a: 01110100110 ( 934) | b: 10110101111 (1455) | res: 0101001011110001111010 (1358970)
# [10175000]  | a: 00101001111 ( 335) | b: 11010101010 (1706) | res: 0010001011100001110110 ( 571510)
# [10185000]  | a: 00100110111 ( 311) | b: 10000001101 (1037) | res: 0001001110101111001011 ( 322507)
# [10195000]  | a: 01001011010 ( 602) | b: 01111010001 ( 977) | res: 0010001111100101111010 ( 588154)
# [10205000]  | a: 00001100100 ( 100) | b: 10111111100 (1532) | res: 0000100101011001110000 ( 153200)
# [10215000]  | a: 10100001101 (1293) | b: 10101010111 (1367) | res: 0110101111100001101011 (1767531)
# [10225000]  | a: 01001011000 ( 600) | b: 10000010001 (1041) | res: 0010011000011111011000 ( 624600)
# [10235000]  | a: 11100110100 (1844) | b: 01101011111 ( 863) | res: 0110000100100001001100 (1591372)
# [10245000]  | a: 11010001001 (1673) | b: 01110010101 ( 917) | res: 0101110110100010111101 (1534141)
# [10255000]  | a: 01000011010 ( 538) | b: 00010010010 ( 146) | res: 0000010011001011010100 (  78548)
# [10265000]  | a: 11101101001 (1897) | b: 00100100100 ( 292) | res: 0010000111001111000100 ( 553924)
# [10275000]  | a: 11100001010 (1802) | b: 00010000001 ( 129) | res: 0000111000110000001010 ( 232458)
# [10285000]  | a: 01100101010 ( 810) | b: 01010101010 ( 682) | res: 0010000110110111100100 ( 552420)
# [10295000]  | a: 10100001111 (1295) | b: 11011001001 (1737) | res: 1000100101001011000111 (2249415)
# [10305000]  | a: 10100000100 (1284) | b: 00010000100 ( 132) | res: 0000101001011000010000 ( 169488)
# [10315000]  | a: 10101000001 (1345) | b: 01000001111 ( 527) | res: 0010101101000011001111 ( 708815)
# [10325000]  | a: 01101011101 ( 861) | b: 11010000111 (1671) | res: 0101011111010000001011 (1438731)
# [10335000]  | a: 10010100101 (1189) | b: 00110101011 ( 427) | res: 0001111011111100110111 ( 507703)
# [10345000]  | a: 11011000010 (1730) | b: 01001101111 ( 623) | res: 0100000111001000011110 (1077790)
# [10355000]  | a: 00010001111 ( 143) | b: 10100010001 (1297) | res: 0000101101010001111111 ( 185471)
# [10365000]  | a: 00110011100 ( 412) | b: 01011100111 ( 743) | res: 0001001010101111000100 ( 306116)
# [10375000]  | a: 10101001011 (1355) | b: 00011011101 ( 221) | res: 0001001001000110111111 ( 299455)
# [10385000]  | a: 00010011101 ( 157) | b: 11101110011 (1907) | res: 0001001001000110000111 ( 299399)
# [10395000]  | a: 01001011011 ( 603) | b: 00110010100 ( 404) | res: 0000111011011110011100 ( 243612)
# [10405000]  | a: 00010110101 ( 181) | b: 01011101010 ( 746) | res: 0000100000111101110010 ( 135026)
# [10415000]  | a: 11110010000 (1936) | b: 00001111010 ( 122) | res: 0000111001101010100000 ( 236192)
# [10425000]  | a: 00000000000 (   0) | b: 01101101100 ( 876) | res: 0000000000000000000000 (      0)
# [10435000]  | a: 01001001110 ( 590) | b: 10100000001 (1281) | res: 0010111000100001001110 ( 755790)
# [10445000]  | a: 01001110101 ( 629) | b: 10100001010 (1290) | res: 0011000110000110010010 ( 811410)
# [10455000]  | a: 10111010001 (1489) | b: 01100010011 ( 787) | res: 0100011110000110000011 (1171843)
# [10465000]  | a: 01100111001 ( 825) | b: 11010110011 (1715) | res: 0101011001011011011011 (1414875)
# [10475000]  | a: 01000100101 ( 549) | b: 00111011100 ( 476) | res: 0000111111110011001100 ( 261324)
# [10485000]  | a: 01011100001 ( 737) | b: 11000111100 (1596) | res: 0100011111001010111100 (1176252)
# [10495000]  | a: 11000101010 (1578) | b: 01010100010 ( 674) | res: 0100000011101010010100 (1063572)
# [10505000]  | a: 01011010010 ( 722) | b: 00110110111 ( 439) | res: 0001001101011000011110 ( 316958)
# [10515000]  | a: 11111011011 (2011) | b: 11001001110 (1614) | res: 1100011000011010111010 (3245754)
# [10525000]  | a: 00100100010 ( 290) | b: 11001111011 (1659) | res: 0001110101011101010110 ( 481110)
# [10535000]  | a: 11000010100 (1556) | b: 11000101001 (1577) | res: 1001010111000100110100 (2453812)
# [10545000]  | a: 00001110000 ( 112) | b: 10100000100 (1284) | res: 0000100011000111000000 ( 143808)
# [10555000]  | a: 01000000101 ( 517) | b: 11001001110 (1614) | res: 0011001011101110000110 ( 834438)
# [10565000]  | a: 01110010001 ( 913) | b: 11010000011 (1667) | res: 0101110011100100110011 (1521971)
# [10575000]  | a: 10001000110 (1094) | b: 01100110111 ( 823) | res: 0011011011110100001010 ( 900362)
# [10585000]  | a: 00100100011 ( 291) | b: 01011001110 ( 718) | res: 0000110011000000101010 ( 208938)
# [10595000]  | a: 11110111001 (1977) | b: 10110111000 (1464) | res: 1011000010100111111000 (2894328)
# [10605000]  | a: 11010101111 (1711) | b: 11000110010 (1586) | res: 1010010110100000101110 (2713646)
# [10615000]  | a: 01010010010 ( 658) | b: 01100011010 ( 794) | res: 0001111111100011010100 ( 522452)
# [10625000]  | a: 01011010001 ( 721) | b: 10100011010 (1306) | res: 0011100101111000111010 ( 941626)
# [10635000]  | a: 01111111111 (1023) | b: 10110101100 (1452) | res: 0101101010101001010100 (1485396)
# [10645000]  | a: 01011001101 ( 717) | b: 00000010110 (  22) | res: 0000000011110110011110 (  15774)
# [10655000]  | a: 00100000010 ( 258) | b: 01101001011 ( 843) | res: 0000110101000110010110 ( 217494)
# [10665000]  | a: 10001010010 (1106) | b: 10110001000 (1416) | res: 0101111110010110010000 (1566096)
# [10675000]  | a: 01100001001 ( 777) | b: 00111110111 ( 503) | res: 0001011111011010101111 ( 390831)
# [10685000]  | a: 01011000101 ( 709) | b: 10101011000 (1368) | res: 0011101100110010111000 ( 969912)
# [10695000]  | a: 00101111110 ( 382) | b: 01100011001 ( 793) | res: 0001001001111101001110 ( 302926)
# [10705000]  | a: 01000100111 ( 551) | b: 00000010101 (  21) | res: 0000000010110100110011 (  11571)
# [10715000]  | a: 00111000011 ( 451) | b: 11101110010 (1906) | res: 0011010001110111010110 ( 859606)
# [10725000]  | a: 11011100001 (1761) | b: 10101100111 (1383) | res: 1001010010100110000111 (2435463)
# [10735000]  | a: 00100110111 ( 311) | b: 11010010000 (1680) | res: 0001111111100011110000 ( 522480)
# [10745000]  | a: 10000000101 (1029) | b: 11111111111 (2047) | res: 1000000010001111111011 (2106363)
# [10755000]  | a: 00010111000 ( 184) | b: 11011010011 (1747) | res: 0001001110011110101000 ( 321448)
# [10765000]  | a: 11000000110 (1542) | b: 01100001100 ( 780) | res: 0100100101101001001000 (1202760)
# [10775000]  | a: 01101001001 ( 841) | b: 11000000011 (1539) | res: 0100111011111111011011 (1294299)
# [10785000]  | a: 11110110010 (1970) | b: 01110100000 ( 928) | res: 0110111110010101000000 (1828160)
# [10795000]  | a: 00101101001 ( 361) | b: 00001100011 (  99) | res: 0000001000101110011011 (  35739)
# [10805000]  | a: 00011110101 ( 245) | b: 11000001101 (1549) | res: 0001011100101001110001 ( 379505)
# [10815000]  | a: 00011111001 ( 249) | b: 11011101000 (1768) | res: 0001101011011110101000 ( 440232)
# [10825000]  | a: 11000011101 (1565) | b: 00000100101 (  37) | res: 0000001110001000110001 (  57905)
# [10835000]  | a: 10010000111 (1159) | b: 00111101111 ( 495) | res: 0010001100000100001001 ( 573705)
# [10845000]  | a: 10010011011 (1179) | b: 10100110111 (1335) | res: 0110000000010001001101 (1573965)
# [10855000]  | a: 11000100011 (1571) | b: 00111101100 ( 492) | res: 0010111100101101000100 ( 772932)
# [10865000]  | a: 01100111010 ( 826) | b: 11000000110 (1542) | res: 0100110110111101011100 (1273692)
# [10875000]  | a: 01100111010 ( 826) | b: 11101000111 (1863) | res: 0101110111101100010110 (1538838)
# [10885000]  | a: 10011110101 (1269) | b: 00100111010 ( 314) | res: 0001100001010010000010 ( 398466)
# [10895000]  | a: 01001001100 ( 588) | b: 01110001011 ( 907) | res: 0010000010001101000100 ( 533316)
# [10905000]  | a: 01010111011 ( 699) | b: 00000111111 (  63) | res: 0000001010110000000101 (  44037)
# [10915000]  | a: 11000010010 (1554) | b: 10100111001 (1337) | res: 0111111011010000000010 (2077698)
# [10925000]  | a: 11101011001 (1881) | b: 00101000111 ( 327) | res: 0010010110001010101111 ( 615087)
# [10935000]  | a: 01110010110 ( 918) | b: 00111010000 ( 464) | res: 0001100111111111100000 ( 425952)
# [10945000]  | a: 00100110011 ( 307) | b: 11101111101 (1917) | res: 0010001111101011100111 ( 588519)
# [10955000]  | a: 01111001011 ( 971) | b: 01111100001 ( 993) | res: 0011101011011001101011 ( 964203)
# [10965000]  | a: 10101000100 (1348) | b: 11100010000 (1808) | res: 1001010011000001000000 (2437184)
# [10975000]  | a: 00000000000 (   0) | b: 00010010111 ( 151) | res: 0000000000000000000000 (      0)
# [10985000]  | a: 10100010001 (1297) | b: 10100001010 (1290) | res: 0110011000011110101010 (1673130)
# [10995000]  | a: 00110111100 ( 444) | b: 10010100001 (1185) | res: 0010000000011100111100 ( 526140)
# [11005000]  | a: 00010110000 ( 176) | b: 10100110001 (1329) | res: 0000111001000110110000 ( 233904)
# [11015000]  | a: 11001001011 (1611) | b: 01001010111 ( 599) | res: 0011101011100101111101 ( 964989)
# [11025000]  | a: 01010101110 ( 686) | b: 00001111100 ( 124) | res: 0000010100110001001000 (  85064)
# [11035000]  | a: 11010111011 (1723) | b: 10000101010 (1066) | res: 0111000000011010101110 (1836718)
# [11045000]  | a: 10011001000 (1224) | b: 10110111011 (1467) | res: 0110110110011000011000 (1795608)
# [11055000]  | a: 01101010001 ( 849) | b: 10101111110 (1406) | res: 0100100011011011011110 (1193694)
# [11065000]  | a: 01010101001 ( 681) | b: 11110110011 (1971) | res: 0101000111101100101011 (1342251)
# [11075000]  | a: 11111101011 (2027) | b: 10001001011 (1099) | res: 1000011111110111011001 (2227673)
# [11085000]  | a: 11000111011 (1595) | b: 11001111100 (1660) | res: 1010000110011010010100 (2647700)
# [11095000]  | a: 01111101111 (1007) | b: 01000111001 ( 569) | res: 0010001011111000110111 ( 572983)
# [11105000]  | a: 00111011110 ( 478) | b: 10110110110 (1462) | res: 0010101010100111010100 ( 698836)
# [11115000]  | a: 01010011111 ( 671) | b: 11001100000 (1632) | res: 0100001011010110100000 (1095072)
# [11125000]  | a: 00111101110 ( 494) | b: 00111001011 ( 459) | res: 0000110111010110111010 ( 226746)
# [11135000]  | a: 10011010000 (1232) | b: 01010000000 ( 640) | res: 0011000000100000000000 ( 788480)
# [11145000]  | a: 11110000110 (1926) | b: 10110001101 (1421) | res: 1010011100001011001110 (2736846)
# [11155000]  | a: 00101100010 ( 354) | b: 10010011100 (1180) | res: 0001100101111110111000 ( 417720)
# [11165000]  | a: 00010001010 ( 138) | b: 01011010100 ( 724) | res: 0000011000011001001000 (  99912)
# [11175000]  | a: 00000101110 (  46) | b: 00010001100 ( 140) | res: 0000000001100100101000 (   6440)
# [11185000]  | a: 01110101001 ( 937) | b: 10100001100 (1292) | res: 0100100111100011101100 (1210604)
# [11195000]  | a: 01111101100 (1004) | b: 10111111110 (1534) | res: 0101111000000000101000 (1540136)
# [11205000]  | a: 00111111101 ( 509) | b: 01000111110 ( 574) | res: 0001000111010101000110 ( 292166)
# [11215000]  | a: 10100011010 (1306) | b: 11011111101 (1789) | res: 1000111010011010110010 (2336434)
# [11225000]  | a: 11101110100 (1908) | b: 10101011010 (1370) | res: 1001111110001011001000 (2613960)
# [11235000]  | a: 11001111101 (1661) | b: 01001001111 ( 591) | res: 0011101111101010010011 ( 981651)
# [11245000]  | a: 10011001110 (1230) | b: 00100100110 ( 294) | res: 0001011000010010010100 ( 361620)
# [11255000]  | a: 01000000110 ( 518) | b: 01100000101 ( 773) | res: 0001100001110000011110 ( 400414)
# [11265000]  | a: 10000101000 (1064) | b: 00110010100 ( 404) | res: 0001101000111100100000 ( 429856)
# [11275000]  | a: 10001011001 (1113) | b: 10100000001 (1281) | res: 0101011100000101011001 (1425753)
# [11285000]  | a: 01100000000 ( 768) | b: 10101100001 (1377) | res: 0100000010001100000000 (1057536)
# [11295000]  | a: 11110010100 (1940) | b: 00000010011 (  19) | res: 0000001000111111111100 (  36860)
# [11305000]  | a: 10001001101 (1101) | b: 01110100001 ( 929) | res: 0011111001101101101101 (1022829)
# [11315000]  | a: 11110111111 (1983) | b: 10110010011 (1427) | res: 1010110010110110101101 (2829741)
# [11325000]  | a: 10100110101 (1333) | b: 10000101100 (1068) | res: 0101011011100100011100 (1423644)
# [11335000]  | a: 10100010100 (1300) | b: 11110110101 (1973) | res: 1001110010001100100100 (2564900)
# [11345000]  | a: 11101100100 (1892) | b: 00001010001 (  81) | res: 0000100101011010100100 ( 153252)
# [11355000]  | a: 01010100111 ( 679) | b: 01111101100 (1004) | res: 0010100110011011110100 ( 681716)
# [11365000]  | a: 11010111010 (1722) | b: 10001110011 (1139) | res: 0111011110110110001110 (1961358)
# [11375000]  | a: 01001100010 ( 610) | b: 11010111101 (1725) | res: 0100000000111001011010 (1052250)
# [11385000]  | a: 11100111111 (1855) | b: 10010001100 (1164) | res: 1000001111001001110100 (2159220)
# [11395000]  | a: 10101011001 (1369) | b: 01100001111 ( 783) | res: 0100000101101100110111 (1071927)
# [11405000]  | a: 11111001011 (1995) | b: 11011100100 (1764) | res: 1101011011001011001100 (3519180)
# [11415000]  | a: 11010100110 (1702) | b: 00000001011 (  11) | res: 0000000100100100100010 (  18722)
# [11425000]  | a: 11100100011 (1827) | b: 11000000011 (1539) | res: 1010101110011101101001 (2811753)
# [11435000]  | a: 11001100111 (1639) | b: 11010001101 (1677) | res: 1010011111000010111011 (2748603)
# [11445000]  | a: 10100011011 (1307) | b: 00010111001 ( 185) | res: 0000111011000010000011 ( 241795)
# [11455000]  | a: 00000000000 (   0) | b: 11011010111 (1751) | res: 0000000000000000000000 (      0)
# [11465000]  | a: 10001111110 (1150) | b: 11001101000 (1640) | res: 0111001100011100110000 (1886000)
# [11475000]  | a: 10101000101 (1349) | b: 00100010000 ( 272) | res: 0001011001100101010000 ( 366928)
# [11485000]  | a: 11011110001 (1777) | b: 01010100101 ( 677) | res: 0100100101101101010101 (1203029)
# [11495000]  | a: 10111001001 (1481) | b: 10110101110 (1454) | res: 1000001101101110011110 (2153374)
# [11505000]  | a: 01010111110 ( 702) | b: 00000101000 (  40) | res: 0000000110110110110000 (  28080)
# [11515000]  | a: 10010100011 (1187) | b: 01011110111 ( 759) | res: 0011011011111101000101 ( 900933)
# [11525000]  | a: 01111111111 (1023) | b: 11001111101 (1661) | res: 0110011110110110000011 (1699203)
# [11535000]  | a: 10000111100 (1084) | b: 00111001000 ( 456) | res: 0001111000101011100000 ( 494304)
# [11545000]  | a: 11101100111 (1895) | b: 10101111111 (1407) | res: 1010001010111100011001 (2666265)
# [11555000]  | a: 01100100100 ( 804) | b: 10110101101 (1453) | res: 0100011101001101010100 (1168212)
# [11565000]  | a: 01110011111 ( 927) | b: 01111000001 ( 961) | res: 0011011001011111011111 ( 890847)
# [11575000]  | a: 01100100110 ( 806) | b: 00000100110 (  38) | res: 0000000111011110100100 (  30628)
# [11585000]  | a: 10100100010 (1314) | b: 01111111111 (1023) | res: 0101001000001011011110 (1344222)
# [11595000]  | a: 11001011000 (1624) | b: 10010010011 (1171) | res: 0111010000010010001000 (1901704)
# [11605000]  | a: 01110001001 ( 905) | b: 10101101001 (1385) | res: 0100110010000000110001 (1253425)
# [11615000]  | a: 00000000000 (   0) | b: 10000111001 (1081) | res: 0000000000000000000000 (      0)
# [11625000]  | a: 11101111001 (1913) | b: 11110110011 (1971) | res: 1110011000100010011011 (3770523)
# [11635000]  | a: 10001001110 (1102) | b: 01010111000 ( 696) | res: 0010111011010000010000 ( 766992)
# [11645000]  | a: 01001101001 ( 617) | b: 01100010100 ( 788) | res: 0001110110101100110100 ( 486196)
# [11655000]  | a: 11111010001 (2001) | b: 00000001001 (   9) | res: 0000000100011001011001 (  18009)
# [11665000]  | a: 01111000100 ( 964) | b: 00110101110 ( 430) | res: 0001100101001100111000 ( 414520)
# [11675000]  | a: 11010010011 (1683) | b: 00001010010 (  82) | res: 0000100001101100010110 ( 138006)
# [11685000]  | a: 00100000011 ( 259) | b: 10100011001 (1305) | res: 0001010010100001001011 ( 337995)
# [11695000]  | a: 11101110010 (1906) | b: 11110110100 (1972) | res: 1110010101101000101000 (3758632)
# [11705000]  | a: 11100011010 (1818) | b: 11100100011 (1827) | res: 1100101010111010001110 (3321486)
# [11715000]  | a: 00000011000 (  24) | b: 00011100100 ( 228) | res: 0000000001010101100000 (   5472)
# [11725000]  | a: 11111111011 (2043) | b: 11011111010 (1786) | res: 1101111010110100011110 (3648798)
# [11735000]  | a: 00100000101 ( 261) | b: 10101011101 (1373) | res: 0001010111011111010001 ( 358353)
# [11745000]  | a: 00111100010 ( 482) | b: 11100110110 (1846) | res: 0011011001001110101100 ( 889772)
# [11755000]  | a: 01011110011 ( 755) | b: 10100110110 (1334) | res: 0011110101111001000010 (1007170)
# [11765000]  | a: 11100000110 (1798) | b: 01111100001 ( 993) | res: 0110110011111001000110 (1785414)
# [11775000]  | a: 01001111110 ( 638) | b: 10110011010 (1434) | res: 0011011111010111001100 ( 914892)
# [11785000]  | a: 10001110000 (1136) | b: 11111010110 (2006) | res: 1000101100010110100000 (2278816)
# [11795000]  | a: 01101110001 ( 881) | b: 01110010100 ( 916) | res: 0011000101000001010100 ( 806996)
# [11805000]  | a: 10111011110 (1502) | b: 10000010101 (1045) | res: 0101111111001100110110 (1569590)
# [11815000]  | a: 01011111111 ( 767) | b: 00000000000 (   0) | res: 0000000000000000000000 (      0)
# [11825000]  | a: 11001110101 (1653) | b: 00000101100 (  44) | res: 0000010001110000011100 (  72732)
# [11835000]  | a: 01110111001 ( 953) | b: 00100000011 ( 259) | res: 0000111100010000101011 ( 246827)
# [11845000]  | a: 10100110010 (1330) | b: 00011101001 ( 233) | res: 0001001011101010000010 ( 309890)
# [11855000]  | a: 01101101111 ( 879) | b: 01010010100 ( 660) | res: 0010001101101000101100 ( 580140)
# [11865000]  | a: 01001100010 ( 610) | b: 10001101111 (1135) | res: 0010101001000001111110 ( 692350)
# [11875000]  | a: 01100101010 ( 810) | b: 00000100000 (  32) | res: 0000000110010101000000 (  25920)
# [11885000]  | a: 00000000001 (   1) | b: 10000001000 (1032) | res: 0000000000010000001000 (   1032)
# [11895000]  | a: 10010011000 (1176) | b: 01110010111 ( 919) | res: 0100000111110110101000 (1080744)
# [11905000]  | a: 10011001001 (1225) | b: 10011001111 (1231) | res: 0101110000001010000111 (1507975)
# [11915000]  | a: 10001100011 (1123) | b: 11010100001 (1697) | res: 0111010001010001000011 (1905731)
# [11925000]  | a: 01010111000 ( 696) | b: 00001011110 (  94) | res: 0000001111111110010000 (  65424)
# [11935000]  | a: 10011111110 (1278) | b: 00101101101 ( 365) | res: 0001110001111000100110 ( 466470)
# [11945000]  | a: 00101100001 ( 353) | b: 00011111001 ( 249) | res: 0000010101011101011001 (  87897)
# [11955000]  | a: 10010010100 (1172) | b: 10001100101 (1125) | res: 0101000001111001100100 (1318500)
# [11965000]  | a: 01110110001 ( 945) | b: 00101100000 ( 352) | res: 0001010001001101100000 ( 332640)
# [11975000]  | a: 00001110001 ( 113) | b: 00100100011 ( 291) | res: 0000001000000001110011 (  32883)
# [11985000]  | a: 11000110100 (1588) | b: 10110011010 (1434) | res: 1000101011111101001000 (2277192)
# [11995000]  | a: 01011011001 ( 729) | b: 00011001001 ( 201) | res: 0000100011110001100001 ( 146529)
# [12005000]  | a: 01100000001 ( 769) | b: 00110101010 ( 426) | res: 0001001111111110101010 ( 327594)
# [12015000]  | a: 00111000101 ( 453) | b: 11011110100 (1780) | res: 0011000100110111000100 ( 806340)
# [12025000]  | a: 00101101010 ( 362) | b: 01000100100 ( 548) | res: 0000110000011011101000 ( 198376)
# [12035000]  | a: 11101110100 (1908) | b: 01100001111 ( 783) | res: 0101101100101111001100 (1493964)
# [12045000]  | a: 00100000101 ( 261) | b: 01000011111 ( 543) | res: 0000100010100110011011 ( 141723)
# [12055000]  | a: 10001100001 (1121) | b: 00101000010 ( 322) | res: 0001011000001000000010 ( 360962)
# [12065000]  | a: 01100011111 ( 799) | b: 10111011000 (1496) | res: 0100100011110100101000 (1195304)
# [12075000]  | a: 00010110110 ( 182) | b: 00011110001 ( 241) | res: 0000001010101101010110 (  43862)
# [12085000]  | a: 01101001101 ( 845) | b: 00001010111 (  87) | res: 0000010001111100101011 (  73515)
# [12095000]  | a: 01100001011 ( 779) | b: 10111101011 (1515) | res: 0100100000001000011001 (1180185)
# [12105000]  | a: 00011001111 ( 207) | b: 10011111001 (1273) | res: 0001000000010101010111 ( 263511)
# [12115000]  | a: 10101010111 (1367) | b: 11011000010 (1730) | res: 1001000001010111101110 (2364910)
# [12125000]  | a: 00000001001 (   9) | b: 00100110010 ( 306) | res: 0000000000101011000010 (   2754)
# [12135000]  | a: 10000110110 (1078) | b: 10000111000 (1080) | res: 0100011100001111010000 (1164240)
# [12145000]  | a: 11111111010 (2042) | b: 10101101101 (1389) | res: 1010110100011101110010 (2836338)
# [12155000]  | a: 00011100110 ( 230) | b: 11000110111 (1591) | res: 0001011001010101101010 ( 365930)
# [12165000]  | a: 11001000000 (1600) | b: 00000100011 (  35) | res: 0000001101101011000000 (  56000)
# [12175000]  | a: 00111000101 ( 453) | b: 01101001110 ( 846) | res: 0001011101100100000110 ( 383238)
# [12185000]  | a: 11011000011 (1731) | b: 11110110111 (1975) | res: 1101000010101001100101 (3418725)
# [12195000]  | a: 11110011101 (1949) | b: 10000010100 (1044) | res: 0111110000110001000100 (2034756)
# [12205000]  | a: 01010000010 ( 642) | b: 00110110010 ( 434) | res: 0001000100000001100100 ( 278628)
# [12215000]  | a: 01011100011 ( 739) | b: 01000111101 ( 573) | res: 0001100111011000010111 ( 423447)
# [12225000]  | a: 00110010001 ( 401) | b: 10100000011 (1283) | res: 0001111101100110110011 ( 514483)
# [12235000]  | a: 10101101101 (1389) | b: 00011111100 ( 252) | res: 0001010101011101001100 ( 350028)
# [12245000]  | a: 01110100100 ( 932) | b: 01010010010 ( 658) | res: 0010010101101110001000 ( 613256)
# [12255000]  | a: 11010111010 (1722) | b: 11100010101 (1813) | res: 1011111010001101000010 (3121986)
# [12265000]  | a: 00010100010 ( 162) | b: 11010011111 (1695) | res: 0001000011000010011110 ( 274590)
# [12275000]  | a: 11110111000 (1976) | b: 01101101001 ( 873) | res: 0110100101001001111000 (1725048)
# [12285000]  | a: 01010111010 ( 698) | b: 01101000001 ( 833) | res: 0010001101111100111010 ( 581434)
# [12295000]  | a: 00001010001 (  81) | b: 10011000111 (1223) | res: 0000011000001011110111 (  99063)
# [12305000]  | a: 11001101010 (1642) | b: 00000010111 (  23) | res: 0000001001001110000110 (  37766)
# [12315000]  | a: 01000100101 ( 549) | b: 00110110001 ( 433) | res: 0000111010000010010101 ( 237717)
# [12325000]  | a: 10000110011 (1075) | b: 10101110111 (1399) | res: 0101101111001010110101 (1503925)
# [12335000]  | a: 10001111000 (1144) | b: 01001000010 ( 578) | res: 0010100001011011110000 ( 661232)
# [12345000]  | a: 11001001100 (1612) | b: 10110101000 (1448) | res: 1000111001110111100000 (2334176)
# [12355000]  | a: 10100011101 (1309) | b: 10011011100 (1244) | res: 0110001101100011101100 (1628396)
# [12365000]  | a: 11000111000 (1592) | b: 00101011100 ( 348) | res: 0010000111010000100000 ( 554016)
# [12375000]  | a: 11100111010 (1850) | b: 11111011100 (2012) | res: 1110001100101111011000 (3722200)
# [12385000]  | a: 01110011100 ( 924) | b: 11100000011 (1795) | res: 0110010100111011010100 (1658580)
# [12395000]  | a: 10010010000 (1168) | b: 00001001110 (  78) | res: 0000010110001111100000 (  91104)
# [12405000]  | a: 11000011000 (1560) | b: 10010110011 (1203) | res: 0111001010001011001000 (1876680)
# [12415000]  | a: 11000110110 (1590) | b: 01100100111 ( 807) | res: 0100111001010000111010 (1283130)
# [12425000]  | a: 11100001111 (1807) | b: 00001000010 (  66) | res: 0000011101000111011110 ( 119262)
# [12435000]  | a: 10100110000 (1328) | b: 11110100010 (1954) | res: 1001111001100001100000 (2594912)
# [12445000]  | a: 11110000101 (1925) | b: 11110110001 (1969) | res: 1110011101010111110101 (3790325)
# [12455000]  | a: 10111010010 (1490) | b: 10001110000 (1136) | res: 0110011101001111100000 (1692640)
# [12465000]  | a: 10010010111 (1175) | b: 10011110111 (1271) | res: 0101101100100110110001 (1493425)
# [12475000]  | a: 00011100101 ( 229) | b: 01001010000 ( 592) | res: 0000100001000110010000 ( 135568)
# [12485000]  | a: 11001111111 (1663) | b: 01100100001 ( 801) | res: 0101000101001101011111 (1332063)
# [12495000]  | a: 01111001010 ( 970) | b: 01101110100 ( 884) | res: 0011010001010110001000 ( 857480)
# [12505000]  | a: 01011101010 ( 746) | b: 10011000000 (1216) | res: 0011011101011110000000 ( 907136)
# [12515000]  | a: 10001010011 (1107) | b: 00010100111 ( 167) | res: 0000101101001000100101 ( 184869)
# [12525000]  | a: 00010101001 ( 169) | b: 01000011101 ( 541) | res: 0000010110010100100101 (  91429)
# [12535000]  | a: 11001100101 (1637) | b: 00001100110 ( 102) | res: 0000101000110000111110 ( 166974)
# [12545000]  | a: 11101000100 (1860) | b: 01100111000 ( 824) | res: 0101110110001011100000 (1532640)
# [12555000]  | a: 10101111001 (1401) | b: 11110110001 (1969) | res: 1010100001011110101001 (2758569)
# [12565000]  | a: 11010110011 (1715) | b: 00111111111 ( 511) | res: 0011010101111101001101 ( 876365)
# [12575000]  | a: 01001010110 ( 598) | b: 11010001010 (1674) | res: 0011110100011001011100 (1001052)
# [12585000]  | a: 11100110100 (1844) | b: 01011001010 ( 714) | res: 0101000001011100001000 (1316616)
# [12595000]  | a: 01010010000 ( 656) | b: 11111110000 (2032) | res: 0101000101011100000000 (1332992)
# [12605000]  | a: 01000010000 ( 528) | b: 01010001001 ( 649) | res: 0001010011101010010000 ( 342672)
# [12615000]  | a: 10101101011 (1387) | b: 00010000110 ( 134) | res: 0000101101011000000010 ( 185858)
# [12625000]  | a: 01000110101 ( 565) | b: 11001000111 (1607) | res: 0011011101101010110011 ( 907955)
# [12635000]  | a: 10001111110 (1150) | b: 01000001101 ( 525) | res: 0010010011011001100110 ( 603750)
# [12645000]  | a: 01101111110 ( 894) | b: 10010000011 (1155) | res: 0011111100000101111010 (1032570)
# [12655000]  | a: 11011101110 (1774) | b: 00011010100 ( 212) | res: 0001011011110100011000 ( 376088)
# [12665000]  | a: 11101111010 (1914) | b: 00111101010 ( 490) | res: 0011100100111110000100 ( 937860)
# [12675000]  | a: 01001010100 ( 596) | b: 00000010101 (  21) | res: 0000000011000011100100 (  12516)
# [12685000]  | a: 10110101111 (1455) | b: 01110110001 ( 945) | res: 0101001111101011111111 (1374975)
