mantissa-tb-sv/sim/report-sim.log
Reading pref.tcl

# 2020.4

# vsim -c -sv_seed random -do "sim.do" -do "cov.do" "+n100" mul_tb 
# Start time: 16:11:51 on Mar 23,2024
# ** Note: (vsim-3812) Design is being optimized...
# ** Warning: ../src/daddatree.sv(4): (vopt-13314) Defaulting port 'ops' kind to 'var' rather than 'wire' due to default compile option setting of -svinputport=relaxed.
# ** Note: (vsim-12126) Error and warning message counts have been restored: Errors=0, Warnings=1.
# //  Questa Sim-64
# //  Version 2020.4 linux_x86_64 Oct 13 2020
# //
# //  Copyright 1991-2020 Mentor Graphics Corporation
# //  All Rights Reserved.
# //
# //  QuestaSim and its associated documentation contain trade
# //  secrets and commercial or financial information that are the property of
# //  Mentor Graphics Corporation and are privileged, confidential,
# //  and exempt from disclosure under the Freedom of Information Act,
# //  5 U.S.C. Section 552. Furthermore, this information
# //  is prohibited from disclosure under the Trade Secrets Act,
# //  18 U.S.C. Section 1905.
# //
# Loading sv_std.std
# Loading work.mul_tb_sv_unit(fast)
# Loading work.mul_tb(fast)
# Loading work.mul_wrap(fast)
# Loading work.mul_if(fast)
# Sv_Seed = 649994336
# do sim.do

########## SIMULATION STARTS ##########

# [CONFIG] Number of test cycles set to 100
# 
# TEST #1 - Launching MUL quiet test...
# TEST #1 - Test completed!
# TEST #1 - Functional coverage: 50.00%
# 
# TEST #2 - Launching MUL verbose test...
# [1025000]  | a: 10111000101 (1477) | b: 10010111011 (1211) | res: 0110110100101011100111 (1788647)
# [1035000]  | a: 10101101101 (1389) | b: 11101000111 (1863) | res: 1001110111110000111011 (2587707)
# [1045000]  | a: 10000010011 (1043) | b: 01100101000 ( 808) | res: 0011001101101111111000 ( 842744)
# [1055000]  | a: 01110000101 ( 901) | b: 11111111111 (2047) | res: 0111000010010001111011 (1844347)
# [1065000]  | a: 10111110100 (1524) | b: 11110101101 (1965) | res: 1011011011000111100100 (2994660)
# [1075000]  | a: 11001101010 (1642) | b: 11111111111 (2047) | res: 1100110100100110010110 (3361174)
# [1085000]  | a: 10011101011 (1259) | b: 00000110000 (  48) | res: 0000001110110000010000 (  60432)
# [1095000]  | a: 11010000100 (1668) | b: 10100001111 (1295) | res: 1000001111010110111100 (2160060)
# [1105000]  | a: 01000010101 ( 533) | b: 01011001011 ( 715) | res: 0001011101000010100111 ( 381095)
# [1115000]  | a: 10011111001 (1273) | b: 11110100000 (1952) | res: 1001011110101010100000 (2484896)
# [1125000]  | a: 11001001101 (1613) | b: 01100011010 ( 794) | res: 0100111000101011010010 (1280722)
# [1135000]  | a: 01001010000 ( 592) | b: 00101110011 ( 371) | res: 0000110101100111110000 ( 219632)
# [1145000]  | a: 00111011100 ( 476) | b: 11010011101 (1693) | res: 0011000100101111101100 ( 805868)
# [1155000]  | a: 10000010000 (1040) | b: 10111111101 (1533) | res: 0110000101001111010000 (1594320)
# [1165000]  | a: 00110101010 ( 426) | b: 00110011001 ( 409) | res: 0000101010100010011010 ( 174234)
# [1175000]  | a: 11000010100 (1556) | b: 01000110010 ( 562) | res: 0011010101011111101000 ( 874472)
# [1185000]  | a: 10010011101 (1181) | b: 01010011011 ( 667) | res: 0011000000010100001111 ( 787727)
# [1195000]  | a: 01001010000 ( 592) | b: 10100000001 (1281) | res: 0010111001001001010000 ( 758352)
# [1205000]  | a: 01010001010 ( 650) | b: 01100000100 ( 772) | res: 0001111010100000101000 ( 501800)
# [1215000]  | a: 01001101110 ( 622) | b: 10111000001 (1473) | res: 0011011111101011101110 ( 916206)
# [1225000]  | a: 10111010111 (1495) | b: 10100001000 (1288) | res: 0111010110000110111000 (1925560)
# [1235000]  | a: 11101000011 (1859) | b: 11010000111 (1671) | res: 1011110110011001010101 (3106389)
# [1245000]  | a: 01000001100 ( 524) | b: 01011010110 ( 726) | res: 0001011100111000001000 ( 380424)
# [1255000]  | a: 10110010000 (1424) | b: 11111001100 (1996) | res: 1010110101111011000000 (2842304)
# [1265000]  | a: 00111000011 ( 451) | b: 01010000000 ( 640) | res: 0001000110011110000000 ( 288640)
# [1275000]  | a: 11000011010 (1562) | b: 01010011011 ( 667) | res: 0011111110010110111110 (1041854)
# [1285000]  | a: 00111101001 ( 489) | b: 01000001010 ( 522) | res: 0000111110010100011010 ( 255258)
# [1295000]  | a: 11011011011 (1755) | b: 01001111111 ( 639) | res: 0100010001110010100101 (1121445)
# [1305000]  | a: 01011010010 ( 722) | b: 00011111110 ( 254) | res: 0000101100110001011100 ( 183388)
# [1315000]  | a: 10000110011 (1075) | b: 10011100111 (1255) | res: 0101001001011000000101 (1349125)
# [1325000]  | a: 10110011100 (1436) | b: 11011000000 (1728) | res: 1001011101110100000000 (2481408)
# [1335000]  | a: 01110101111 ( 943) | b: 00110010000 ( 400) | res: 0001011100000101110000 ( 377200)
# [1345000]  | a: 10011111111 (1279) | b: 11110000000 (1920) | res: 1001010111100010000000 (2455680)
# [1355000]  | a: 10001110000 (1136) | b: 11000100011 (1571) | res: 0110110011101101010000 (1784656)
# [1365000]  | a: 01011100110 ( 742) | b: 11111100001 (2017) | res: 0101101101011000100110 (1496614)
# [1375000]  | a: 01101010111 ( 855) | b: 11100101011 (1835) | res: 0101111111000010011101 (1568925)
# [1385000]  | a: 00001000110 (  70) | b: 10011101100 (1260) | res: 0000010101100010001000 (  88200)
# [1395000]  | a: 01100111010 ( 826) | b: 00001100001 (  97) | res: 0000010011100011111010 (  80122)
# [1405000]  | a: 10101110110 (1398) | b: 01000011011 ( 539) | res: 0010110111111101110010 ( 753522)
# [1415000]  | a: 11111001001 (1993) | b: 00001001000 (  72) | res: 0000100011000010001000 ( 143496)
# [1425000]  | a: 01101110011 ( 883) | b: 11111100101 (2021) | res: 0110110011101011011111 (1784543)
# [1435000]  | a: 01001001000 ( 584) | b: 10101111001 (1401) | res: 0011000111110000001000 ( 818184)
# [1445000]  | a: 10100010001 (1297) | b: 01100011111 ( 799) | res: 0011111101000000001111 (1036303)
# [1455000]  | a: 00110001001 ( 393) | b: 11010011100 (1692) | res: 0010100010010101111100 ( 664956)
# [1465000]  | a: 10011100011 (1251) | b: 11010011101 (1693) | res: 1000000101000100110111 (2117943)
# [1475000]  | a: 10100010111 (1303) | b: 01111110001 (1009) | res: 0101000000111110100111 (1314727)
# [1485000]  | a: 01000101001 ( 553) | b: 00100011100 ( 284) | res: 0000100110010101111100 ( 157052)
# [1495000]  | a: 01100001100 ( 780) | b: 01101010010 ( 850) | res: 0010100001110111011000 ( 663000)
# [1505000]  | a: 00100111110 ( 318) | b: 00110000000 ( 384) | res: 0000011101110100000000 ( 122112)
# [1515000]  | a: 01101110000 ( 880) | b: 10101001010 (1354) | res: 0100100010111001100000 (1191520)
# [1525000]  | a: 00100101000 ( 296) | b: 10000001010 (1034) | res: 0001001010101110010000 ( 306064)
# [1535000]  | a: 11101011001 (1881) | b: 10000010011 (1043) | res: 0111011110111110011011 (1961883)
# [1545000]  | a: 10111000110 (1478) | b: 01001000101 ( 581) | res: 0011010001101001011110 ( 858718)
# [1555000]  | a: 01100001111 ( 783) | b: 11101100010 (1890) | res: 0101101001010010111110 (1479870)
# [1565000]  | a: 00000100101 (  37) | b: 10100000010 (1282) | res: 0000001011100101001010 (  47434)
# [1575000]  | a: 11111101001 (2025) | b: 10101010011 (1363) | res: 1010100001110110001011 (2760075)
# [1585000]  | a: 11110100111 (1959) | b: 11110001111 (1935) | res: 1110011101011101001001 (3790665)
# [1595000]  | a: 00001000001 (  65) | b: 11101111100 (1916) | res: 0000011110011001111100 ( 124540)
# [1605000]  | a: 10111011111 (1503) | b: 00000001110 (  14) | res: 0000000101001000110010 (  21042)
# [1615000]  | a: 10101011011 (1371) | b: 01111011010 ( 986) | res: 0101001010000001111110 (1351806)
# [1625000]  | a: 00110111010 ( 442) | b: 01000000010 ( 514) | res: 0000110111011101110100 ( 227188)
# [1635000]  | a: 11101111100 (1916) | b: 11111110110 (2038) | res: 1110111001010100101000 (3904808)
# [1645000]  | a: 11100110011 (1843) | b: 11101000001 (1857) | res: 1101000011100011110011 (3422451)
# [1655000]  | a: 10010011110 (1182) | b: 11011001101 (1741) | res: 0111110110011010000110 (2057862)
# [1665000]  | a: 00100101011 ( 299) | b: 11011011101 (1757) | res: 0010000000010000011111 ( 525343)
# [1675000]  | a: 11011101001 (1769) | b: 11111000100 (1988) | res: 1101011010100101100100 (3516772)
# [1685000]  | a: 00101000000 ( 320) | b: 10011011101 (1245) | res: 0001100001010001000000 ( 398400)
# [1695000]  | a: 11111111111 (2047) | b: 11000111110 (1598) | res: 1100011110100111000010 (3271106)
# [1705000]  | a: 00110011110 ( 414) | b: 01000011100 ( 540) | res: 0000110110100101001000 ( 223560)
# [1715000]  | a: 01111001001 ( 969) | b: 01100111101 ( 829) | res: 0011000100000111100101 ( 803301)
# [1725000]  | a: 00011101100 ( 236) | b: 01111101010 (1002) | res: 0000111001101110111000 ( 236472)
# [1735000]  | a: 10000010111 (1047) | b: 00010011000 ( 152) | res: 0000100110110110101000 ( 159144)
# [1745000]  | a: 10101100001 (1377) | b: 10111000011 (1475) | res: 0111101111110111100011 (2031075)
# [1755000]  | a: 01001101000 ( 616) | b: 01101101110 ( 878) | res: 0010000100000010110000 ( 540848)
# [1765000]  | a: 10101111100 (1404) | b: 01010110011 ( 691) | res: 0011101100110110110100 ( 970164)
# [1775000]  | a: 00110010110 ( 406) | b: 01111111111 (1023) | res: 0001100101011001101010 ( 415338)
# [1785000]  | a: 00001101101 ( 109) | b: 01000011010 ( 538) | res: 0000001110010100010010 (  58642)
# [1795000]  | a: 10110110001 (1457) | b: 00000110111 (  55) | res: 0000010011100100000111 (  80135)
# [1805000]  | a: 00101110011 ( 371) | b: 10011000011 (1219) | res: 0001101110011010011001 ( 452249)
# [1815000]  | a: 10000001001 (1033) | b: 11010010001 (1681) | res: 0110100111111100011001 (1736473)
# [1825000]  | a: 11000111011 (1595) | b: 11011001000 (1736) | res: 1010100100000000011000 (2768920)
# [1835000]  | a: 01011001101 ( 717) | b: 10111100010 (1506) | res: 0100000111100111111010 (1079802)
# [1845000]  | a: 11111000001 (1985) | b: 10001001010 (1098) | res: 1000010100000111001010 (2179530)
# [1855000]  | a: 11000011100 (1564) | b: 00100111100 ( 316) | res: 0001111000101010010000 ( 494224)
# [1865000]  | a: 11100010110 (1814) | b: 10100011100 (1308) | res: 1001000011010001101000 (2372712)
# [1875000]  | a: 00011010001 ( 209) | b: 10010101011 (1195) | res: 0000111100111110011011 ( 249755)
# [1885000]  | a: 11001101101 (1645) | b: 00010111011 ( 187) | res: 0001001011000110011111 ( 307615)
# [1895000]  | a: 00010001000 ( 136) | b: 01111001010 ( 970) | res: 0000100000001101010000 ( 131920)
# [1905000]  | a: 10110101100 (1452) | b: 01011001100 ( 716) | res: 0011111101110100010000 (1039632)
# [1915000]  | a: 01100100101 ( 805) | b: 01011011000 ( 728) | res: 0010001111000100111000 ( 586040)
# [1925000]  | a: 01010111001 ( 697) | b: 00110001010 ( 394) | res: 0001000011000010111010 ( 274618)
# [1935000]  | a: 10000111010 (1082) | b: 11100000000 (1792) | res: 0111011001011000000000 (1938944)
# [1945000]  | a: 01100000011 ( 771) | b: 10100010110 (1302) | res: 0011110101000101000010 (1003842)
# [1955000]  | a: 00100111001 ( 313) | b: 00010000001 ( 129) | res: 0000001001110110111001 (  40377)
# [1965000]  | a: 11100001101 (1805) | b: 00111011101 ( 477) | res: 0011010010001100111001 ( 860985)
# [1975000]  | a: 11110001011 (1931) | b: 10101000100 (1348) | res: 1001111011011111101100 (2602988)
# [1985000]  | a: 00100110111 ( 311) | b: 00100000000 ( 256) | res: 0000010011011100000000 (  79616)
# [1995000]  | a: 10011000000 (1216) | b: 01101110010 ( 882) | res: 0100000101110110000000 (1072512)
# [2005000]  | a: 01111000001 ( 961) | b: 10101010011 (1363) | res: 0100111111110010010011 (1309843)
# [2015000]  | a: 01111000001 ( 961) | b: 10101010011 (1363) | res: 0100111111110010010011 (1309843)
# TEST #2 - Test completed!
# TEST #2 - Functional coverage: 66.67%
# 
# TOTAL FUNCTIONAL COVERAGE: 66.67%
# 
### TEST PASSED!
# 
# ** Note: $stop    : ../tb/mul_tb.sv(86)
#    Time: 2015 ns  Iteration: 1  Instance: /mul_tb
# Break at ../tb/mul_tb.sv line 86
# Stopped at ../tb/mul_tb.sv line 86

##########  SIMULATION ENDS  ##########

# End time: 16:11:53 on Mar 23,2024, Elapsed time: 0:00:02
# Errors: 0, Warnings: 1
